{
  "version": {"major": 4, "minor": 0},
  "checkouts": [{"id": "redhat:123", "origin": "redhat"}],
  "builds": [{"id": "redhat:1234", "origin": "redhat"}],
  "tests": [
    {"id": "redhat:1",
     "origin": "redhat",
     "comment": "boot test",
     "build_id": "redhat:1234",
     "status": "PASS"},
    {"id": "redhat:2",
     "origin": "redhat",
     "comment": "ltp",
     "build_id": "redhat:1234"},
    {"id": "redhat:3",
     "origin": "redhat",
     "comment": "secret test",
     "build_id": "redhat:1234"}
  ]
}
